<j:Responsive_ProductPage_Start />
	<j:Responsive_ProductSlider />
	<j:Responsive_ProductHeader />
    <j:Responsive_ProductArticleNo />
	<j:Responsive_ProductStockStatus />
	<j:Responsive_ProductPrices />
	<j:Responsive_ProductAttributes />
	<j:Responsive_ProductComments />
	<j:Responsive_ProductSpecifications />
	<j:Responsive_ProductBuyButton />
	<j:Responsive_ProductPartPayment />
	<j:Responsive_ProductDescription />
	<j:Responsive_ProductTemplates />
<j:Responsive_ProductPage_End />
