<j:Responsive_StartPage_Starter />
<j:Responsive_StartPage_Slider />
<j:Responsive_StartPage_Search />
<j:Responsive_StartPage_WelcomeText />
<div id="category-list-placeholder"></div>
<j:Responsive_StartPage_MainCategories />
<j:Responsive_StartPage_TopList />